///////// IMAGES (Tabelle Media) /////////////////////////////////////////////////////////////////////////

INSERT INTO `media` (`id`, `project_id`, `title`, `url`, `header_image`, `user_id`, `created_at`, `updated_at`)
VALUES ('6', '1', 'our man in nirvana', 'images/jan/our_man_in_nirvana/visual16_ourmaninnirvana.jpg', NULL, '3', '2020-10-23 16:04:29', current_timestamp());

///////// PROJECTS //////////////////////////////////////////////////////////////////////////////////////////////////////////////

Beispiel: Bango Vassil:
----------------------
INSERT INTO `project` (`id`, `user_id`, `name`, `project_category`, `sub_category`, `description`, `created_at`, `updated_at`) 
VALUES ('4', '8', 'Milen', 'Interactive', '2D Animation', 'Two children share an altogether different kind of New Year\'s Eve, taking an icy journey where they must cross waters and cultures to make a fresh start.', '2020-10-25 13:52:35', current_timestamp());

SELECT * FROM `project` WHERE 1

SELECT `id`, `user_id`, `name`, `project_category`, `sub_category`, `description`, `created_at`, `updated_at` FROM `project` WHERE 1



